%YAML 1.1
%TAG !u! tag:unity3d.com,2011:
--- !u!114 &11400000
MonoBehaviour:
  m_ObjectHideFlags: 0
  m_CorrespondingSourceObject: {fileID: 0}
  m_PrefabInstance: {fileID: 0}
  m_PrefabAsset: {fileID: 0}
  m_GameObject: {fileID: 0}
  m_Enabled: 1
  m_EditorHideFlags: 0
  m_Script: {fileID: 11500000, guid: be4cd0c739d84a242adf1f3f9c56f08c, type: 3}
  m_Name: PlayerGraphicOptions
  m_EditorClassIdentifier: 
  currentDropDownIndex: 0
  fullScreen: 0
  vsync: 0
